<?xml version="1.0" encoding="utf-8"?>
<!-- Generator: Adobe Illustrator 21.1.0, SVG Export Plug-In . SVG Version: 6.00 Build 0)  -->
<svg version="1.1" id="Capa_1" xmlns="http://www.w3.org/2000/svg" xmlns:xlink="http://www.w3.org/1999/xlink" x="0px" y="0px"
	 viewBox="0 0 512 512" style="enable-background:new 0 0 512 512;" xml:space="preserve">
<g transform="matrix(1.25 0 0 -1.25 0 45)">
	<g>
		<g>
			<path style="fill:#3B88C3;" d="M409.6-328.1c0-25.1-20.4-45.5-45.5-45.5H45.5C20.4-373.6,0-353.2,0-328.1V-9.5
				C0,15.6,20.4,36,45.5,36h318.6c25.1,0,45.5-20.4,45.5-45.5V-328.1z"/>
		</g>
	</g>
</g>
<path style="fill:none;stroke:#333333;stroke-width:16;stroke-miterlimit:10;" d="M176.4,158.7h-26c-21.1,0-29.9-15.4-29.9-30.4
	c0-15.4,11-30.4,29.9-30.4h62.5c18.9,0,29.5,13.6,29.5,31.2v250.4c0,22-14.1,34.3-33,34.3s-33-12.3-33-34.3V158.7z"/>
<path style="fill:none;stroke:#333333;stroke-width:16;stroke-miterlimit:10;" d="M325.5,158.7h-26c-21.1,0-29.9-15.4-29.9-30.4
	c0-15.4,11-30.4,29.9-30.4H362c18.9,0,29.5,13.6,29.5,31.2v250.4c0,22-14.1,34.3-33,34.3s-33-12.3-33-34.3V158.7z"/>
</svg>
